…
## Do some data cleaning. Create separate variables for year, month, and day. Ensure observations for temperature, precipitation, and snowfall are given in reasonable units. For snowfall, what are the most commonly observed values? Why?

``` r
tidy_noaa = ny_noaa %>% 
  separate(date, into = c('year', 'month', 'date'), sep = '-') %>%
  mutate(tmax = as.double(tmax) / 10, 
         tmin = as.double(tmin) / 10, 
         prcp = prcp / 10) %>% 
  mutate(tmax = as.numeric(tmax), tmin = as.numeric(tmin))

tidy_noaa
```

    ## # A tibble: 2,595,176 × 9
    ##    id          year  month date   prcp  snow  snwd  tmax  tmin
    ##    <chr>       <chr> <chr> <chr> <dbl> <int> <int> <dbl> <dbl>
    ##  1 US1NYAB0001 2007  11    01       NA    NA    NA    NA    NA
    ##  2 US1NYAB0001 2007  11    02       NA    NA    NA    NA    NA
    ##  3 US1NYAB0001 2007  11    03       NA    NA    NA    NA    NA
    ##  4 US1NYAB0001 2007  11    04       NA    NA    NA    NA    NA
    ##  5 US1NYAB0001 2007  11    05       NA    NA    NA    NA    NA
    ##  6 US1NYAB0001 2007  11    06       NA    NA    NA    NA    NA
    ##  7 US1NYAB0001 2007  11    07       NA    NA    NA    NA    NA
    ##  8 US1NYAB0001 2007  11    08       NA    NA    NA    NA    NA
    ##  9 US1NYAB0001 2007  11    09       NA    NA    NA    NA    NA
    ## 10 US1NYAB0001 2007  11    10       NA    NA    NA    NA    NA
    ## # … with 2,595,166 more rows
…
